Mapping global coverage from local sampling – Code Resources for MEC-24-1288
…
This step pairs lat long into a point geometry.

st_transform(data_sf, 4326)

Simple feature collection with 20503896 features and 6 fields
Geometry type: POINT
Dimension:     XY
Bounding box:  xmin: -174.9518 ymin: -55.04704 xmax: 175 ymax: 84.75
Geodetic CRS:  WGS 84
# A tibble: 20,503,896 × 7
   scientificName          species         taxonKey speciesKey  year countryCode
 * <chr>                   <chr>              <int>      <int> <int> <chr>      
 1 Holcus lanatus L.       Holcus lanatus   2706164    2706164  2018 FR         
 2 Holcus lanatus L.       Holcus lanatus   2706164    2706164  2018 FR         
 3 Senecio vulgaris L.     Senecio vulgar…  3108983    3108983  1985 FR         
 4 Hypochaeris radicata L. Hypochaeris ra…  3093702    3093702  2019 FR         
 5 Achillea millefolium L. Achillea mille…  3120060    3120060  2015 FR         
 6 Agrostis stolonifera L. Agrostis stolo…  2706435    2706435  1994 FR         
 7 Achillea millefolium L. Achillea mille…  3120060    3120060  2000 FR         
 8 Senecio vulgaris L.     Senecio vulgar…  3108983    3108983  2009 FR         
 9 Juncus articulatus L.   Juncus articul…  2701261    2701261  1991 FR         
10 Prunella vulgaris L.    Prunella vulga…  5341297    5341297  1999 FR         
# ℹ 20,503,886 more rows
# ℹ 1 more variable: geometry <POINT [°]>
…
